{
  "name": "bulkteleport",
  "version": "VERSION",
  "factorio_version": "0.16",
  "title": "Bulk Teleporters",
  "author": "dorfl",
  "contact": "Dorfl <ceramic.atheist@gmail.com>",
  "homepage": "https://gitlab.com/aerosuidae/bulkteleport",
  "description": "Use spare gigajoules to teleport shipments of items.",
  "dependencies": [
    "base >= 0.16.51"
  ]
}
